{
    "headers": [
        "id",
        "name",
        "rank",
        "format"
    ],
    "content": [
        [
            "333",
            "3x3x3 Cube",
            "10",
            "time"
        ],
        [
            "444",
            "4x4x4 Cube",
            "30",
            "time"
        ],
        [
            "555",
            "5x5x5 Cube",
            "40",
            "time"
        ],
        [
            "333bf",
            "3x3x3 Blindfolded",
            "70",
            "time"
        ],
        [
            "333fm",
            "3x3x3 Fewest Moves",
            "80",
            "number"
        ]
    ],
    "number": 0,
    "numberOfElements": 5,
    "size": 5,
    "totalElements": 14,
    "totalPages": 3,
    "hasContent": true,
    "hasNextPage": true,
    "hasPreviousPage": false,
    "firstPage": true,
    "lastPage": false
}